Data, Code & Coffee - Penguins and nakedpipes
…
Additional operators

You can use %P.% to print the output of each step:

penguins %P.% {
  sex == "female"
  select(1:5) 
  head(5)
} -> y

penguins %P.% {

  sex == "female"

# A tibble: 165 × 8
   species island    bill_length_mm bill_depth_mm flipper_length_mm body_mass_g
   <fct>   <fct>              <dbl>         <dbl>             <int>       <int>
 1 Adelie  Torgersen           39.5          17.4               186        3800
 2 Adelie  Torgersen           40.3          18                 195        3250
 3 Adelie  Torgersen           36.7          19.3               193        3450
 4 Adelie  Torgersen           38.9          17.8               181        3625
 5 Adelie  Torgersen           41.1          17.6               182        3200
 6 Adelie  Torgersen           36.6          17.8               185        3700
 7 Adelie  Torgersen           38.7          19                 195        3450
 8 Adelie  Torgersen           34.4          18.4               184        3325
 9 Adelie  Biscoe              37.8          18.3               174        3400
10 Adelie  Biscoe              35.9          19.2               189        3800
# … with 155 more rows, and 2 more variables: sex <fct>, year <int>

  select(1:5)

# A tibble: 165 × 5
   species island    bill_length_mm bill_depth_mm flipper_length_mm
   <fct>   <fct>              <dbl>         <dbl>             <int>
 1 Adelie  Torgersen           39.5          17.4               186
 2 Adelie  Torgersen           40.3          18                 195
 3 Adelie  Torgersen           36.7          19.3               193
 4 Adelie  Torgersen           38.9          17.8               181
 5 Adelie  Torgersen           41.1          17.6               182
 6 Adelie  Torgersen           36.6          17.8               185
 7 Adelie  Torgersen           38.7          19                 195
 8 Adelie  Torgersen           34.4          18.4               184
 9 Adelie  Biscoe              37.8          18.3               174
10 Adelie  Biscoe              35.9          19.2               189
# … with 155 more rows
…
